<?xml version="1.0" encoding="iso-8859-1"?>
<!-- Generator: Adobe Illustrator 16.0.0, SVG Export Plug-In . SVG Version: 6.00 Build 0)  -->
<!DOCTYPE svg PUBLIC "-//W3C//DTD SVG 1.1//EN" "http://www.w3.org/Graphics/SVG/1.1/DTD/svg11.dtd">
<svg version="1.1" id="Capa_1" xmlns="http://www.w3.org/2000/svg" xmlns:xlink="http://www.w3.org/1999/xlink" x="0px" y="0px"
	 width="292.842px" height="292.842px" viewBox="0 0 292.842 292.842" style="enable-background:new 0 0 292.842 292.842;"
	 xml:space="preserve">
<g>
	<g>
		<polygon points="242.786,75.402 184.768,75.402 184.768,17.39 213.771,46.398 		"/>
		<path d="M32.666,292.842V0h127.506v87.706c0,6.788,5.506,12.297,12.298,12.297h87.706v192.838H32.666z"/>
	</g>
</g>
<g>
</g>
<g>
</g>
<g>
</g>
<g>
</g>
<g>
</g>
<g>
</g>
<g>
</g>
<g>
</g>
<g>
</g>
<g>
</g>
<g>
</g>
<g>
</g>
<g>
</g>
<g>
</g>
<g>
</g>
</svg>
